{
	"info": {
		"_postman_id": "65618bf6-277a-4c74-bc83-55d588749b32",
		"name": "AM",
		"schema": "https://schema.getpostman.com/json/collection/v2.1.0/collection.json"
	},
	"item": [
		{
			"name": "convert",
			"request": {
				"method": "POST",
				"header": [],
				"body": {
					"mode": "raw",
					"raw": "{\n    \"fileName\": \"happy-path-patient-conversion.xml\"\n}",
					"options": {
						"raw": {
							"language": "json"
						}
					}
				},
				"url": {
					"raw": "http://localhost:8080/arbormetrix-xml-converter-service/convert",
					"protocol": "http",
					"host": [
						"localhost"
					],
					"port": "8080",
					"path": [
						"arbormetrix-xml-converter-service",
						"convert"
					]
				}
			},
			"response": []
		}
	],
	"protocolProfileBehavior": {}
}